^C:\USERS\DIEGO\DESKTOP\TFG\PRUEBASVISION\PRUEBASVISIONOPENCV\PRUEBAVISIONOPENCV\PRUEBAVISIONOPENCV\SOURCE.CPP
C:\USERS\DIEGO\DESKTOP\TFG\PRUEBASVISION\PRUEBASVISIONOPENCV\PRUEBAVISIONOPENCV\PRUEBAVISIONOPENCV\X64\DEBUG\SOURCE.OBJ
C:\USERS\DIEGO\DESKTOP\TFG\PRUEBASVISION\PRUEBASVISIONOPENCV\PRUEBAVISIONOPENCV\PRUEBAVISIONOPENCV\X64\DEBUG\VC110.PDB
