^C:\Users\Diego\Desktop\TFG\PruebasVision\PruebasVisionOpenCV\PruebaVisionOpenCV\PruebaVisionOpenCV\PruebaVisionOpenCV.vcxproj
C:\Users\Diego\Desktop\TFG\PruebasVision\PruebasVisionOpenCV\PruebaVisionOpenCV\x64\Debug\PruebaVisionOpenCV.lib
C:\Users\Diego\Desktop\TFG\PruebasVision\PruebasVisionOpenCV\PruebaVisionOpenCV\x64\Debug\PruebaVisionOpenCV.lib
C:\Users\Diego\Desktop\TFG\PruebasVision\PruebasVisionOpenCV\PruebaVisionOpenCV\x64\Debug\PruebaVisionOpenCV.exp
C:\Users\Diego\Desktop\TFG\PruebasVision\PruebasVisionOpenCV\PruebaVisionOpenCV\x64\Debug\PruebaVisionOpenCV.exp
^C:\Users\Diego\Desktop\TFG\PruebasVision\PruebasVisionOpenCV\PruebaVisionOpenCV\PruebaVisionOpenCV\PruebaVisionOpenCV.vcxproj
C:\Users\Diego\Desktop\TFG\PruebasVision\PruebasVisionOpenCV\PruebaVisionOpenCV\x64\Debug\PruebaVisionOpenCV.lib
C:\Users\Diego\Desktop\TFG\PruebasVision\PruebasVisionOpenCV\PruebaVisionOpenCV\x64\Debug\PruebaVisionOpenCV.lib
C:\Users\Diego\Desktop\TFG\PruebasVision\PruebasVisionOpenCV\PruebaVisionOpenCV\x64\Debug\PruebaVisionOpenCV.exp
C:\Users\Diego\Desktop\TFG\PruebasVision\PruebasVisionOpenCV\PruebaVisionOpenCV\x64\Debug\PruebaVisionOpenCV.exp
