^C:\USERS\DIEGO\DESKTOP\TFG\PRUEBASVISION\PRUEBASVISIONOPENCV\PRUEBAVISIONOPENCV\PRUEBAVISIONOPENCV\X64\RELEASE\SOURCE.OBJ
/OUT:"C:\USERS\DIEGO\DESKTOP\TFG\PRUEBASVISION\PRUEBASVISIONOPENCV\PRUEBAVISIONOPENCV\X64\RELEASE\PRUEBAVISIONOPENCV.DLL" /NOLOGO /LIBPATH:"C:\Program Files\OpenCV\OpenCV 3.1\lib\Release" opencv_calib3d310.lib opencv_core310.lib opencv_features2d310.lib opencv_flann310.lib opencv_highgui310.lib opencv_imgcodecs310.lib opencv_imgproc310.lib opencv_ml310.lib opencv_objdetect310.lib opencv_photo310.lib opencv_shape310.lib opencv_stitching310.lib opencv_superres310.lib opencv_ts310.lib opencv_video310.lib opencv_videoio310.lib opencv_videostab310.lib kernel32.lib user32.lib gdi32.lib winspool.lib comdlg32.lib advapi32.lib shell32.lib ole32.lib oleaut32.lib uuid.lib odbc32.lib odbccp32.lib /MANIFEST /MANIFESTUAC:"level='asInvoker' uiAccess='false'" /manifest:embed /DEBUG /PDB:"C:\USERS\DIEGO\DESKTOP\TFG\PRUEBASVISION\PRUEBASVISIONOPENCV\PRUEBAVISIONOPENCV\X64\RELEASE\PRUEBAVISIONOPENCV.PDB" /OPT:REF /OPT:ICF /LTCG /TLBID:1 /DYNAMICBASE /NXCOMPAT /IMPLIB:"C:\USERS\DIEGO\DESKTOP\TFG\PRUEBASVISION\PRUEBASVISIONOPENCV\PRUEBAVISIONOPENCV\X64\RELEASE\PRUEBAVISIONOPENCV.LIB" /MACHINE:X64 /DLL X64\RELEASE\SOURCE.OBJ
^C:\USERS\DIEGO\DESKTOP\TFG\PRUEBASVISION\PRUEBASVISIONOPENCV\PRUEBAVISIONOPENCV\PRUEBAVISIONOPENCV\X64\RELEASE\SOURCE.OBJ|C:\USERS\DIEGO\DESKTOP\TFG\PRUEBASVISION\PRUEBASVISIONOPENCV\PRUEBAVISIONOPENCV\PRUEBAVISIONOPENCV\X64\RELEASE\SOURCEFACE.OBJ|C:\USERS\DIEGO\DESKTOP\TFG\PRUEBASVISION\PRUEBASVISIONOPENCV\PRUEBAVISIONOPENCV\PRUEBAVISIONOPENCV\X64\RELEASE\SOURCEGRIDDETECTION.OBJ
/OUT:"C:\USERS\DIEGO\DESKTOP\TFG\PRUEBASVISION\PRUEBASVISIONOPENCV\PRUEBAVISIONOPENCV\X64\RELEASE\PRUEBAVISIONOPENCV.DLL" /NOLOGO /LIBPATH:"C:\Program Files\OpenCV\OpenCV 3.1\lib\Release" opencv_calib3d310.lib opencv_core310.lib opencv_features2d310.lib opencv_flann310.lib opencv_highgui310.lib opencv_imgcodecs310.lib opencv_imgproc310.lib opencv_ml310.lib opencv_objdetect310.lib opencv_photo310.lib opencv_shape310.lib opencv_stitching310.lib opencv_superres310.lib opencv_ts310.lib opencv_video310.lib opencv_videoio310.lib opencv_videostab310.lib kernel32.lib user32.lib gdi32.lib winspool.lib comdlg32.lib advapi32.lib shell32.lib ole32.lib oleaut32.lib uuid.lib odbc32.lib odbccp32.lib /MANIFEST /MANIFESTUAC:"level='asInvoker' uiAccess='false'" /manifest:embed /DEBUG /PDB:"C:\USERS\DIEGO\DESKTOP\TFG\PRUEBASVISION\PRUEBASVISIONOPENCV\PRUEBAVISIONOPENCV\X64\RELEASE\PRUEBAVISIONOPENCV.PDB" /OPT:REF /OPT:ICF /LTCG /TLBID:1 /DYNAMICBASE /NXCOMPAT /IMPLIB:"C:\USERS\DIEGO\DESKTOP\TFG\PRUEBASVISION\PRUEBASVISIONOPENCV\PRUEBAVISIONOPENCV\X64\RELEASE\PRUEBAVISIONOPENCV.LIB" /MACHINE:X64 /DLL X64\RELEASE\SOURCE.OBJX64\RELEASE\SOURCEFACE.OBJX64\RELEASE\SOURCEGRIDDETECTION.OBJ
